%YAML 1.1
%TAG !u! tag:unity3d.com,2011:
--- !u!114 &11400000
MonoBehaviour:
  m_ObjectHideFlags: 0
  m_PrefabParentObject: {fileID: 0}
  m_PrefabInternal: {fileID: 0}
  m_GameObject: {fileID: 0}
  m_Enabled: 1
  m_EditorHideFlags: 0
  m_Script: {fileID: 11500000, guid: f422b3be3600bdb4fbb6fd0b2c496c2d, type: 3}
  m_Name: Ghost Hunter Config
  m_EditorClassIdentifier: 
  ConfigName: default
  AppId: 
  ApiKey: 
  UserDomain: 
